[OVERALL], RunTime(ms), 321976
[OVERALL], Throughput(ops/sec), 7764.553879792283
[TOTAL_GCS_G1_Young_Generation], Count, 1276
[TOTAL_GC_TIME_G1_Young_Generation], Time(ms), 1426
[TOTAL_GC_TIME_%_G1_Young_Generation], Time(%), 0.4428901533033518
[TOTAL_GCS_G1_Old_Generation], Count, 0
[TOTAL_GC_TIME_G1_Old_Generation], Time(ms), 0
[TOTAL_GC_TIME_%_G1_Old_Generation], Time(%), 0.0
[TOTAL_GCs], Count, 1276
[TOTAL_GC_TIME], Time(ms), 1426
[TOTAL_GC_TIME_%], Time(%), 0.4428901533033518
[CLEANUP], Operations, 6
[CLEANUP], AverageLatency(us), 0.16666666666666666
[CLEANUP], MinLatency(us), 0
[CLEANUP], MaxLatency(us), 1
[CLEANUP], 95thPercentileLatency(us), 1
[CLEANUP], 99thPercentileLatency(us), 1
[INSERT], Operations, 2500000
[INSERT], AverageLatency(us), 715.4851636
[INSERT], MinLatency(us), 106
[INSERT], MaxLatency(us), 86847
[INSERT], 95thPercentileLatency(us), 2593
[INSERT], 99thPercentileLatency(us), 5643
[INSERT], Return=OK, 2500000
