Adding shard node URL: jdbc:postgresql://127.0.0.1:5432/ycsb
Adding shard node URL: jdbc:postgresql://127.0.0.1:5432/ycsb
Adding shard node URL: jdbc:postgresql://127.0.0.1:5432/ycsb
Adding shard node URL: jdbc:postgresql://127.0.0.1:5432/ycsb
Adding shard node URL: jdbc:postgresql://127.0.0.1:5432/ycsb
Adding shard node URL: jdbc:postgresql://127.0.0.1:5432/ycsb
Using shards: 1, batchSize:-1, fetchSize: -1
Using shards: 1, batchSize:-1, fetchSize: -1
Using shards: 1, batchSize:-1, fetchSize: -1
Using shards: 1, batchSize:-1, fetchSize: -1
Using shards: 1, batchSize:-1, fetchSize: -1
Using shards: 1, batchSize:-1, fetchSize: -1
[OVERALL], RunTime(ms), 37341
[OVERALL], Throughput(ops/sec), 33475.268471653144
[TOTAL_GCS_G1_Young_Generation], Count, 205
[TOTAL_GC_TIME_G1_Young_Generation], Time(ms), 108
[TOTAL_GC_TIME_%_G1_Young_Generation], Time(%), 0.28922631959508316
[TOTAL_GCS_G1_Old_Generation], Count, 0
[TOTAL_GC_TIME_G1_Old_Generation], Time(ms), 0
[TOTAL_GC_TIME_%_G1_Old_Generation], Time(%), 0.0
[TOTAL_GCs], Count, 205
[TOTAL_GC_TIME], Time(ms), 108
[TOTAL_GC_TIME_%], Time(%), 0.28922631959508316
[READ], Operations, 1187463
[READ], AverageLatency(us), 105.27140971971338
[READ], MinLatency(us), 53
[READ], MaxLatency(us), 13607
[READ], 95thPercentileLatency(us), 246
[READ], 99thPercentileLatency(us), 534
[READ], Return=OK, 1187463
[CLEANUP], Operations, 6
[CLEANUP], AverageLatency(us), 401.8333333333333
[CLEANUP], MinLatency(us), 151
[CLEANUP], MaxLatency(us), 1335
[CLEANUP], 95thPercentileLatency(us), 1335
[CLEANUP], 99thPercentileLatency(us), 1335
[INSERT], Operations, 62537
[INSERT], AverageLatency(us), 1508.1053136543167
[INSERT], MinLatency(us), 581
[INSERT], MaxLatency(us), 176639
[INSERT], 95thPercentileLatency(us), 3195
[INSERT], 99thPercentileLatency(us), 8823
[INSERT], Return=OK, 62537
