[OVERALL], RunTime(ms), 1187518
[OVERALL], Throughput(ops/sec), 8420.92498808439
[TOTAL_GCS_G1_Young_Generation], Count, 2694
[TOTAL_GC_TIME_G1_Young_Generation], Time(ms), 8612
[TOTAL_GC_TIME_%_G1_Young_Generation], Time(%), 0.7252100599738277
[TOTAL_GCS_G1_Old_Generation], Count, 0
[TOTAL_GC_TIME_G1_Old_Generation], Time(ms), 0
[TOTAL_GC_TIME_%_G1_Old_Generation], Time(%), 0.0
[TOTAL_GCs], Count, 2694
[TOTAL_GC_TIME], Time(ms), 8612
[TOTAL_GC_TIME_%], Time(%), 0.7252100599738277
[CLEANUP], Operations, 6
[CLEANUP], AverageLatency(us), 519682.3333333333
[CLEANUP], MinLatency(us), 2
[CLEANUP], MaxLatency(us), 3119103
[CLEANUP], 95thPercentileLatency(us), 3119103
[CLEANUP], 99thPercentileLatency(us), 3119103
[INSERT], Operations, 10000000
[INSERT], AverageLatency(us), 699.8679161
[INSERT], MinLatency(us), 176
[INSERT], MaxLatency(us), 3528703
[INSERT], 95thPercentileLatency(us), 919
[INSERT], 99thPercentileLatency(us), 3065
[INSERT], Return=OK, 10000000
