[OVERALL], RunTime(ms), 1282846
[OVERALL], Throughput(ops/sec), 7795.167931302744
[TOTAL_GCS_G1_Young_Generation], Count, 3427
[TOTAL_GC_TIME_G1_Young_Generation], Time(ms), 10898
[TOTAL_GC_TIME_%_G1_Young_Generation], Time(%), 0.849517401153373
[TOTAL_GCS_G1_Old_Generation], Count, 0
[TOTAL_GC_TIME_G1_Old_Generation], Time(ms), 0
[TOTAL_GC_TIME_%_G1_Old_Generation], Time(%), 0.0
[TOTAL_GCs], Count, 3427
[TOTAL_GC_TIME], Time(ms), 10898
[TOTAL_GC_TIME_%], Time(%), 0.849517401153373
[CLEANUP], Operations, 6
[CLEANUP], AverageLatency(us), 371203.0
[CLEANUP], MinLatency(us), 2
[CLEANUP], MaxLatency(us), 2228223
[CLEANUP], 95thPercentileLatency(us), 2228223
[CLEANUP], 99thPercentileLatency(us), 2228223
[INSERT], Operations, 10000000
[INSERT], AverageLatency(us), 757.4184481
[INSERT], MinLatency(us), 176
[INSERT], MaxLatency(us), 6225919
[INSERT], 95thPercentileLatency(us), 929
[INSERT], 99thPercentileLatency(us), 3115
[INSERT], Return=OK, 10000000
