[OVERALL], RunTime(ms), 1251612
[OVERALL], Throughput(ops/sec), 7989.696487409837
[TOTAL_GCS_PS_Scavenge], Count, 1925
[TOTAL_GC_TIME_PS_Scavenge], Time(ms), 19953
[TOTAL_GC_TIME_%_PS_Scavenge], Time(%), 1.5941841401328847
[TOTAL_GCS_PS_MarkSweep], Count, 2
[TOTAL_GC_TIME_PS_MarkSweep], Time(ms), 62
[TOTAL_GC_TIME_%_PS_MarkSweep], Time(%), 0.0049536118221940985
[TOTAL_GCs], Count, 1927
[TOTAL_GC_TIME], Time(ms), 20015
[TOTAL_GC_TIME_%], Time(%), 1.599137751955079
[CLEANUP], Operations, 6
[CLEANUP], AverageLatency(us), 380879.3333333333
[CLEANUP], MinLatency(us), 2
[CLEANUP], MaxLatency(us), 2234367
[CLEANUP], 95thPercentileLatency(us), 2234367
[CLEANUP], 99thPercentileLatency(us), 2234367
[INSERT], Operations, 10000000
[INSERT], AverageLatency(us), 737.9890889
[INSERT], MinLatency(us), 180
[INSERT], MaxLatency(us), 7274495
[INSERT], 95thPercentileLatency(us), 927
[INSERT], 99thPercentileLatency(us), 3033
[INSERT], Return=OK, 10000000
