[OVERALL], RunTime(ms), 7342339
[OVERALL], Throughput(ops/sec), 680.9819050850144
[TOTAL_GCS_PS_Scavenge], Count, 17744
[TOTAL_GC_TIME_PS_Scavenge], Time(ms), 54350
[TOTAL_GC_TIME_%_PS_Scavenge], Time(%), 0.7402273308274107
[TOTAL_GCS_PS_MarkSweep], Count, 18
[TOTAL_GC_TIME_PS_MarkSweep], Time(ms), 7549
[TOTAL_GC_TIME_%_PS_MarkSweep], Time(%), 0.10281464802973549
[TOTAL_GCs], Count, 17762
[TOTAL_GC_TIME], Time(ms), 61899
[TOTAL_GC_TIME_%], Time(%), 0.8430419788571462
[CLEANUP], Operations, 6
[CLEANUP], AverageLatency(us), 387708.6666666667
[CLEANUP], MinLatency(us), 2
[CLEANUP], MaxLatency(us), 2326527
[CLEANUP], 95thPercentileLatency(us), 2326527
[CLEANUP], 99thPercentileLatency(us), 2326527
[INSERT], Operations, 250605
[INSERT], AverageLatency(us), 542.1792621855111
[INSERT], MinLatency(us), 238
[INSERT], MaxLatency(us), 82879
[INSERT], 95thPercentileLatency(us), 841
[INSERT], 99thPercentileLatency(us), 2673
[INSERT], Return=OK, 250605
[SCAN], Operations, 4749395
[SCAN], AverageLatency(us), 9222.684645939114
[SCAN], MinLatency(us), 285
[SCAN], MaxLatency(us), 640511
[SCAN], 95thPercentileLatency(us), 18991
[SCAN], 99thPercentileLatency(us), 25167
[SCAN], Return=OK, 4749395
