[OVERALL], RunTime(ms), 2361567
[OVERALL], Throughput(ops/sec), 4234.476514958076
[TOTAL_GCS_PS_Scavenge], Count, 5294
[TOTAL_GC_TIME_PS_Scavenge], Time(ms), 13824
[TOTAL_GC_TIME_%_PS_Scavenge], Time(%), 0.5853740334278045
[TOTAL_GCS_PS_MarkSweep], Count, 0
[TOTAL_GC_TIME_PS_MarkSweep], Time(ms), 0
[TOTAL_GC_TIME_%_PS_MarkSweep], Time(%), 0.0
[TOTAL_GCs], Count, 5294
[TOTAL_GC_TIME], Time(ms), 13824
[TOTAL_GC_TIME_%], Time(%), 0.5853740334278045
[CLEANUP], Operations, 6
[CLEANUP], AverageLatency(us), 1.1666666666666667
[CLEANUP], MinLatency(us), 0
[CLEANUP], MaxLatency(us), 7
[CLEANUP], 95thPercentileLatency(us), 7
[CLEANUP], 99thPercentileLatency(us), 7
[INSERT], Operations, 10000000
[INSERT], AverageLatency(us), 1356.739591
[INSERT], MinLatency(us), 107
[INSERT], MaxLatency(us), 479743
[INSERT], 95thPercentileLatency(us), 5947
[INSERT], 99thPercentileLatency(us), 8839
[INSERT], Return=OK, 10000000
