[OVERALL], RunTime(ms), 2122891
[OVERALL], Throughput(ops/sec), 4710.557442657207
[TOTAL_GCS_G1_Young_Generation], Count, 1656
[TOTAL_GC_TIME_G1_Young_Generation], Time(ms), 1702
[TOTAL_GC_TIME_%_G1_Young_Generation], Time(%), 0.08017368767402566
[TOTAL_GCS_G1_Old_Generation], Count, 0
[TOTAL_GC_TIME_G1_Old_Generation], Time(ms), 0
[TOTAL_GC_TIME_%_G1_Old_Generation], Time(%), 0.0
[TOTAL_GCs], Count, 1656
[TOTAL_GC_TIME], Time(ms), 1702
[TOTAL_GC_TIME_%], Time(%), 0.08017368767402566
[READ], Operations, 9500110
[READ], AverageLatency(us), 1300.1380159808675
[READ], MinLatency(us), 54
[READ], MaxLatency(us), 489471
[READ], 95thPercentileLatency(us), 4547
[READ], 99thPercentileLatency(us), 9127
[READ], Return=OK, 9500110
[CLEANUP], Operations, 6
[CLEANUP], AverageLatency(us), 1.0
[CLEANUP], MinLatency(us), 0
[CLEANUP], MaxLatency(us), 6
[CLEANUP], 95thPercentileLatency(us), 6
[CLEANUP], 99thPercentileLatency(us), 6
[UPDATE], Operations, 499890
[UPDATE], AverageLatency(us), 542.264484186521
[UPDATE], MinLatency(us), 81
[UPDATE], MaxLatency(us), 44223
[UPDATE], 95thPercentileLatency(us), 1671
[UPDATE], 99thPercentileLatency(us), 5531
[UPDATE], Return=OK, 499890
