[OVERALL], RunTime(ms), 601265
[OVERALL], Throughput(ops/sec), 8315.800853201168
[TOTAL_GCS_G1_Young_Generation], Count, 1661
[TOTAL_GC_TIME_G1_Young_Generation], Time(ms), 5210
[TOTAL_GC_TIME_%_G1_Young_Generation], Time(%), 0.8665064489035615
[TOTAL_GCS_G1_Old_Generation], Count, 0
[TOTAL_GC_TIME_G1_Old_Generation], Time(ms), 0
[TOTAL_GC_TIME_%_G1_Old_Generation], Time(%), 0.0
[TOTAL_GCs], Count, 1661
[TOTAL_GC_TIME], Time(ms), 5210
[TOTAL_GC_TIME_%], Time(%), 0.8665064489035615
[CLEANUP], Operations, 6
[CLEANUP], AverageLatency(us), 385538.8333333333
[CLEANUP], MinLatency(us), 1
[CLEANUP], MaxLatency(us), 2314239
[CLEANUP], 95thPercentileLatency(us), 2314239
[CLEANUP], 99thPercentileLatency(us), 2314239
[INSERT], Operations, 5000000
[INSERT], AverageLatency(us), 707.6299836
[INSERT], MinLatency(us), 174
[INSERT], MaxLatency(us), 8716287
[INSERT], 95thPercentileLatency(us), 835
[INSERT], 99thPercentileLatency(us), 2695
[INSERT], Return=OK, 5000000
