// create database
CREATE DATABASE ycsb;

// connect to created database
\c ycsb

// create table
CREATE TABLE usertable (
    YCSB_KEY VARCHAR(255) PRIMARY KEY,
    FIELD0 TEXT,
    FIELD1 TEXT,
    FIELD2 TEXT,
    FIELD3 TEXT,
    FIELD4 TEXT,
    FIELD5 TEXT,
    FIELD6 TEXT,
    FIELD7 TEXT,
    FIELD8 TEXT,
    FIELD9 TEXT,
    FIELD10 TEXT,
    FIELD11 TEXT,
    FIELD12 TEXT,
    FIELD13 TEXT,
    FIELD14 TEXT,
    FIELD15 TEXT,
    FIELD16 TEXT,
    FIELD17 TEXT,
    FIELD18 TEXT,
    FIELD19 TEXT,
    FIELD20 TEXT,
    FIELD21 TEXT,
    FIELD22 TEXT,
    FIELD23 TEXT,
    FIELD24 TEXT,
    FIELD25 TEXT,
    FIELD26 TEXT,
    FIELD27 TEXT,
    FIELD28 TEXT,
    FIELD29 TEXT,
    FIELD30 TEXT,
    FIELD31 TEXT,
    FIELD32 TEXT,
    FIELD33 TEXT,
    FIELD34 TEXT,
    FIELD35 TEXT,
    FIELD36 TEXT,
    FIELD37 TEXT,
    FIELD38 TEXT,
    FIELD39 TEXT,
    FIELD40 TEXT,
    FIELD41 TEXT,
    FIELD42 TEXT,
    FIELD43 TEXT,
    FIELD44 TEXT,
    FIELD45 TEXT,
    FIELD46 TEXT,
    FIELD47 TEXT,
    FIELD48 TEXT,
    FIELD49 TEXT,
    FIELD50 TEXT,
    FIELD51 TEXT,
    FIELD52 TEXT,
    FIELD53 TEXT,
    FIELD54 TEXT,
    FIELD55 TEXT,
    FIELD56 TEXT,
    FIELD57 TEXT,
    FIELD58 TEXT,
    FIELD59 TEXT,
    FIELD60 TEXT,
    FIELD61 TEXT,
    FIELD62 TEXT,
    FIELD63 TEXT,
    FIELD64 TEXT,
    FIELD65 TEXT,
    FIELD66 TEXT,
    FIELD67 TEXT,
    FIELD68 TEXT,
    FIELD69 TEXT,
    FIELD70 TEXT,
    FIELD71 TEXT,
    FIELD72 TEXT,
    FIELD73 TEXT,
    FIELD74 TEXT,
    FIELD75 TEXT,
    FIELD76 TEXT,
    FIELD77 TEXT,
    FIELD78 TEXT,
    FIELD79 TEXT,
    FIELD80 TEXT,
    FIELD81 TEXT,
    FIELD82 TEXT,
    FIELD83 TEXT,
    FIELD84 TEXT,
    FIELD85 TEXT,
    FIELD86 TEXT,
    FIELD87 TEXT,
    FIELD88 TEXT,
    FIELD89 TEXT,
    FIELD90 TEXT,
    FIELD91 TEXT,
    FIELD92 TEXT,
    FIELD93 TEXT,
    FIELD94 TEXT,
    FIELD95 TEXT,
    FIELD96 TEXT,
    FIELD97 TEXT,
    FIELD98 TEXT,
    FIELD99 TEXT,
    FIELD100 TEXT,
    FIELD101 TEXT,
    FIELD102 TEXT,
    FIELD103 TEXT,
    FIELD104 TEXT,
    FIELD105 TEXT,
    FIELD106 TEXT,
    FIELD107 TEXT,
    FIELD108 TEXT,
    FIELD109 TEXT,
    FIELD110 TEXT,
    FIELD111 TEXT,
    FIELD112 TEXT,
    FIELD113 TEXT,
    FIELD114 TEXT,
    FIELD115 TEXT,
    FIELD116 TEXT,
    FIELD117 TEXT,
    FIELD118 TEXT,
    FIELD119 TEXT,
    FIELD120 TEXT,
    FIELD121 TEXT,
    FIELD122 TEXT,
    FIELD123 TEXT,
    FIELD124 TEXT,
    FIELD125 TEXT,
    FIELD126 TEXT,
    FIELD127 TEXT,
    FIELD128 TEXT,
    FIELD129 TEXT,
    FIELD130 TEXT,
    FIELD131 TEXT,
    FIELD132 TEXT,
    FIELD133 TEXT,
    FIELD134 TEXT,
    FIELD135 TEXT,
    FIELD136 TEXT,
    FIELD137 TEXT,
    FIELD138 TEXT,
    FIELD139 TEXT,
    FIELD140 TEXT,
    FIELD141 TEXT,
    FIELD142 TEXT,
    FIELD143 TEXT,
    FIELD144 TEXT,
    FIELD145 TEXT,
    FIELD146 TEXT);
