mongo client connection created with mongodb://localhost:27017/ycsb?w=1
[OVERALL], RunTime(ms), 61109
[OVERALL], Throughput(ops/sec), 40910.504181053526
[TOTAL_GCS_G1_Young_Generation], Count, 585
[TOTAL_GC_TIME_G1_Young_Generation], Time(ms), 359
[TOTAL_GC_TIME_%_G1_Young_Generation], Time(%), 0.5874748400399287
[TOTAL_GCS_G1_Old_Generation], Count, 0
[TOTAL_GC_TIME_G1_Old_Generation], Time(ms), 0
[TOTAL_GC_TIME_%_G1_Old_Generation], Time(%), 0.0
[TOTAL_GCs], Count, 585
[TOTAL_GC_TIME], Time(ms), 359
[TOTAL_GC_TIME_%], Time(%), 0.5874748400399287
[READ], Operations, 2500000
[READ], AverageLatency(us), 144.5373712
[READ], MinLatency(us), 82
[READ], MaxLatency(us), 39455
[READ], 95thPercentileLatency(us), 201
[READ], 99thPercentileLatency(us), 262
[READ], Return=OK, 2500000
[CLEANUP], Operations, 6
[CLEANUP], AverageLatency(us), 276.5
[CLEANUP], MinLatency(us), 0
[CLEANUP], MaxLatency(us), 1655
[CLEANUP], 95thPercentileLatency(us), 1655
[CLEANUP], 99thPercentileLatency(us), 1655
