mongo client connection created with mongodb://localhost:27017/ycsb?w=1
[OVERALL], RunTime(ms), 29759
[OVERALL], Throughput(ops/sec), 42004.09960012097
[TOTAL_GCS_G1_Young_Generation], Count, 286
[TOTAL_GC_TIME_G1_Young_Generation], Time(ms), 204
[TOTAL_GC_TIME_%_G1_Young_Generation], Time(%), 0.6855069054739742
[TOTAL_GCS_G1_Old_Generation], Count, 0
[TOTAL_GC_TIME_G1_Old_Generation], Time(ms), 0
[TOTAL_GC_TIME_%_G1_Old_Generation], Time(%), 0.0
[TOTAL_GCs], Count, 286
[TOTAL_GC_TIME], Time(ms), 204
[TOTAL_GC_TIME_%], Time(%), 0.6855069054739742
[READ], Operations, 1250000
[READ], AverageLatency(us), 139.9011888
[READ], MinLatency(us), 82
[READ], MaxLatency(us), 34431
[READ], 95thPercentileLatency(us), 192
[READ], 99thPercentileLatency(us), 285
[READ], Return=OK, 1250000
[CLEANUP], Operations, 6
[CLEANUP], AverageLatency(us), 214.16666666666666
[CLEANUP], MinLatency(us), 0
[CLEANUP], MaxLatency(us), 1281
[CLEANUP], 95thPercentileLatency(us), 1281
[CLEANUP], 99thPercentileLatency(us), 1281
