mongo client connection created with mongodb://localhost:27017/ycsb?w=1
[OVERALL], RunTime(ms), 546012
[OVERALL], Throughput(ops/sec), 2289.3269744987288
[TOTAL_GCS_G1_Young_Generation], Count, 5913
[TOTAL_GC_TIME_G1_Young_Generation], Time(ms), 13101
[TOTAL_GC_TIME_%_G1_Young_Generation], Time(%), 2.399397815432628
[TOTAL_GCS_G1_Old_Generation], Count, 0
[TOTAL_GC_TIME_G1_Old_Generation], Time(ms), 0
[TOTAL_GC_TIME_%_G1_Old_Generation], Time(%), 0.0
[TOTAL_GCs], Count, 5913
[TOTAL_GC_TIME], Time(ms), 13101
[TOTAL_GC_TIME_%], Time(%), 2.399397815432628
[CLEANUP], Operations, 6
[CLEANUP], AverageLatency(us), 288.5
[CLEANUP], MinLatency(us), 0
[CLEANUP], MaxLatency(us), 1723
[CLEANUP], 95thPercentileLatency(us), 1723
[CLEANUP], 99thPercentileLatency(us), 1723
[INSERT], Operations, 62098
[INSERT], AverageLatency(us), 262.70057006666883
[INSERT], MinLatency(us), 125
[INSERT], MaxLatency(us), 16943
[INSERT], 95thPercentileLatency(us), 321
[INSERT], 99thPercentileLatency(us), 570
[INSERT], Return=OK, 62098
[SCAN], Operations, 1187902
[SCAN], AverageLatency(us), 2711.674006778337
[SCAN], MinLatency(us), 129
[SCAN], MaxLatency(us), 110143
[SCAN], 95thPercentileLatency(us), 5283
[SCAN], 99thPercentileLatency(us), 6551
[SCAN], Return=OK, 1187902
