Adding shard node URL: jdbc:postgresql://127.0.0.1:5432/ycsb
Adding shard node URL: jdbc:postgresql://127.0.0.1:5432/ycsb
Adding shard node URL: jdbc:postgresql://127.0.0.1:5432/ycsb
Adding shard node URL: jdbc:postgresql://127.0.0.1:5432/ycsb
Adding shard node URL: jdbc:postgresql://127.0.0.1:5432/ycsb
Adding shard node URL: jdbc:postgresql://127.0.0.1:5432/ycsb
Using shards: 1, batchSize:-1, fetchSize: -1
Using shards: 1, batchSize:-1, fetchSize: -1
Using shards: 1, batchSize:-1, fetchSize: -1
Using shards: 1, batchSize:-1, fetchSize: -1
Using shards: 1, batchSize:-1, fetchSize: -1
Using shards: 1, batchSize:-1, fetchSize: -1
[OVERALL], RunTime(ms), 5251841
[OVERALL], Throughput(ops/sec), 1904.0942023949317
[TOTAL_GCS_G1_Young_Generation], Count, 11025
[TOTAL_GC_TIME_G1_Young_Generation], Time(ms), 21492
[TOTAL_GC_TIME_%_G1_Young_Generation], Time(%), 0.4092279259787187
[TOTAL_GCS_G1_Old_Generation], Count, 0
[TOTAL_GC_TIME_G1_Old_Generation], Time(ms), 0
[TOTAL_GC_TIME_%_G1_Old_Generation], Time(%), 0.0
[TOTAL_GCs], Count, 11025
[TOTAL_GC_TIME], Time(ms), 21492
[TOTAL_GC_TIME_%], Time(%), 0.4092279259787187
[CLEANUP], Operations, 6
[CLEANUP], AverageLatency(us), 4926.333333333333
[CLEANUP], MinLatency(us), 255
[CLEANUP], MaxLatency(us), 26943
[CLEANUP], 95thPercentileLatency(us), 26943
[CLEANUP], 99thPercentileLatency(us), 26943
[INSERT], Operations, 10000000
[INSERT], AverageLatency(us), 3107.8625773
[INSERT], MinLatency(us), 612
[INSERT], MaxLatency(us), 6836223
[INSERT], 95thPercentileLatency(us), 3733
[INSERT], 99thPercentileLatency(us), 32111
[INSERT], Return=OK, 10000000
