Adding shard node URL: jdbc:postgresql://127.0.0.1:5432/ycsb
Adding shard node URL: jdbc:postgresql://127.0.0.1:5432/ycsb
Adding shard node URL: jdbc:postgresql://127.0.0.1:5432/ycsb
Adding shard node URL: jdbc:postgresql://127.0.0.1:5432/ycsb
Adding shard node URL: jdbc:postgresql://127.0.0.1:5432/ycsb
Adding shard node URL: jdbc:postgresql://127.0.0.1:5432/ycsb
Using shards: 1, batchSize:-1, fetchSize: -1
Using shards: 1, batchSize:-1, fetchSize: -1
Using shards: 1, batchSize:-1, fetchSize: -1
Using shards: 1, batchSize:-1, fetchSize: -1
Using shards: 1, batchSize:-1, fetchSize: -1
Using shards: 1, batchSize:-1, fetchSize: -1
[OVERALL], RunTime(ms), 4248757
[OVERALL], Throughput(ops/sec), 2353.629543887777
[TOTAL_GCS_G1_Young_Generation], Count, 11015
[TOTAL_GC_TIME_G1_Young_Generation], Time(ms), 20698
[TOTAL_GC_TIME_%_G1_Young_Generation], Time(%), 0.4871542429938921
[TOTAL_GCS_G1_Old_Generation], Count, 0
[TOTAL_GC_TIME_G1_Old_Generation], Time(ms), 0
[TOTAL_GC_TIME_%_G1_Old_Generation], Time(%), 0.0
[TOTAL_GCs], Count, 11015
[TOTAL_GC_TIME], Time(ms), 20698
[TOTAL_GC_TIME_%], Time(%), 0.4871542429938921
[CLEANUP], Operations, 6
[CLEANUP], AverageLatency(us), 1180.0
[CLEANUP], MinLatency(us), 380
[CLEANUP], MaxLatency(us), 3075
[CLEANUP], 95thPercentileLatency(us), 3075
[CLEANUP], 99thPercentileLatency(us), 3075
[INSERT], Operations, 10000000
[INSERT], AverageLatency(us), 2506.4245712
[INSERT], MinLatency(us), 644
[INSERT], MaxLatency(us), 1575935
[INSERT], 95thPercentileLatency(us), 3377
[INSERT], 99thPercentileLatency(us), 17311
[INSERT], Return=OK, 10000000
