Adding shard node URL: jdbc:postgresql://127.0.0.1:5432/ycsb
Adding shard node URL: jdbc:postgresql://127.0.0.1:5432/ycsb
Adding shard node URL: jdbc:postgresql://127.0.0.1:5432/ycsb
Adding shard node URL: jdbc:postgresql://127.0.0.1:5432/ycsb
Adding shard node URL: jdbc:postgresql://127.0.0.1:5432/ycsb
Adding shard node URL: jdbc:postgresql://127.0.0.1:5432/ycsb
Using shards: 1, batchSize:-1, fetchSize: -1
Using shards: 1, batchSize:-1, fetchSize: -1
Using shards: 1, batchSize:-1, fetchSize: -1
Using shards: 1, batchSize:-1, fetchSize: -1
Using shards: 1, batchSize:-1, fetchSize: -1
Using shards: 1, batchSize:-1, fetchSize: -1
[OVERALL], RunTime(ms), 1840045
[OVERALL], Throughput(ops/sec), 679.331212008402
[TOTAL_GCS_PS_Scavenge], Count, 5013
[TOTAL_GC_TIME_PS_Scavenge], Time(ms), 11728
[TOTAL_GC_TIME_%_PS_Scavenge], Time(%), 0.6373757163547631
[TOTAL_GCS_PS_MarkSweep], Count, 2
[TOTAL_GC_TIME_PS_MarkSweep], Time(ms), 24
[TOTAL_GC_TIME_%_PS_MarkSweep], Time(%), 0.0013043159270561318
[TOTAL_GCs], Count, 5015
[TOTAL_GC_TIME], Time(ms), 11752
[TOTAL_GC_TIME_%], Time(%), 0.6386800322818192
[CLEANUP], Operations, 6
[CLEANUP], AverageLatency(us), 2084.3333333333335
[CLEANUP], MinLatency(us), 108
[CLEANUP], MaxLatency(us), 11903
[CLEANUP], 95thPercentileLatency(us), 11903
[CLEANUP], 99thPercentileLatency(us), 11903
[INSERT], Operations, 62444
[INSERT], AverageLatency(us), 8140.040324130421
[INSERT], MinLatency(us), 679
[INSERT], MaxLatency(us), 809983
[INSERT], 95thPercentileLatency(us), 28447
[INSERT], 99thPercentileLatency(us), 49663
[INSERT], Return=OK, 62444
[SCAN], Operations, 1187556
[SCAN], AverageLatency(us), 8859.611017080457
[SCAN], MinLatency(us), 201
[SCAN], MaxLatency(us), 1581055
[SCAN], 95thPercentileLatency(us), 37215
[SCAN], 99thPercentileLatency(us), 69375
[SCAN], Return=OK, 1187556
