[OVERALL], RunTime(ms), 98828
[OVERALL], Throughput(ops/sec), 12648.237341644068
[TOTAL_GCS_G1_Young_Generation], Count, 378
[TOTAL_GC_TIME_G1_Young_Generation], Time(ms), 538
[TOTAL_GC_TIME_%_G1_Young_Generation], Time(%), 0.5443801351843607
[TOTAL_GCS_G1_Old_Generation], Count, 0
[TOTAL_GC_TIME_G1_Old_Generation], Time(ms), 0
[TOTAL_GC_TIME_%_G1_Old_Generation], Time(%), 0.0
[TOTAL_GCs], Count, 378
[TOTAL_GC_TIME], Time(ms), 538
[TOTAL_GC_TIME_%], Time(%), 0.5443801351843607
[READ], Operations, 1187620
[READ], AverageLatency(us), 464.06949108300637
[READ], MinLatency(us), 147
[READ], MaxLatency(us), 104959
[READ], 95thPercentileLatency(us), 696
[READ], 99thPercentileLatency(us), 2009
[READ], Return=OK, 1187620
[CLEANUP], Operations, 6
[CLEANUP], AverageLatency(us), 369837.0
[CLEANUP], MinLatency(us), 1
[CLEANUP], MaxLatency(us), 2220031
[CLEANUP], 95thPercentileLatency(us), 2220031
[CLEANUP], 99thPercentileLatency(us), 2220031
[UPDATE], Operations, 62380
[UPDATE], AverageLatency(us), 353.03235011221545
[UPDATE], MinLatency(us), 101
[UPDATE], MaxLatency(us), 31679
[UPDATE], 95thPercentileLatency(us), 579
[UPDATE], 99thPercentileLatency(us), 1981
[UPDATE], Return=OK, 62380
