[OVERALL], RunTime(ms), 1060384
[OVERALL], Throughput(ops/sec), 1178.8182394302441
[TOTAL_GCS_G1_Young_Generation], Count, 6014
[TOTAL_GC_TIME_G1_Young_Generation], Time(ms), 8184
[TOTAL_GC_TIME_%_G1_Young_Generation], Time(%), 0.7717958777197694
[TOTAL_GCS_G1_Old_Generation], Count, 0
[TOTAL_GC_TIME_G1_Old_Generation], Time(ms), 0
[TOTAL_GC_TIME_%_G1_Old_Generation], Time(%), 0.0
[TOTAL_GCs], Count, 6014
[TOTAL_GC_TIME], Time(ms), 8184
[TOTAL_GC_TIME_%], Time(%), 0.7717958777197694
[CLEANUP], Operations, 6
[CLEANUP], AverageLatency(us), 369837.0
[CLEANUP], MinLatency(us), 2
[CLEANUP], MaxLatency(us), 2220031
[CLEANUP], 95thPercentileLatency(us), 2220031
[CLEANUP], 99thPercentileLatency(us), 2220031
[INSERT], Operations, 62305
[INSERT], AverageLatency(us), 824.1414493218842
[INSERT], MinLatency(us), 255
[INSERT], MaxLatency(us), 91519
[INSERT], 95thPercentileLatency(us), 1927
[INSERT], 99thPercentileLatency(us), 7263
[INSERT], Return=OK, 62305
[SCAN], Operations, 1187695
[SCAN], AverageLatency(us), 5290.792383566488
[SCAN], MinLatency(us), 249
[SCAN], MaxLatency(us), 359167
[SCAN], 95thPercentileLatency(us), 10199
[SCAN], 99thPercentileLatency(us), 16527
[SCAN], Return=OK, 1187695
