[OVERALL], RunTime(ms), 294201
[OVERALL], Throughput(ops/sec), 8497.591782488842
[TOTAL_GCS_G1_Young_Generation], Count, 817
[TOTAL_GC_TIME_G1_Young_Generation], Time(ms), 2575
[TOTAL_GC_TIME_%_G1_Young_Generation], Time(%), 0.8752519535963508
[TOTAL_GCS_G1_Old_Generation], Count, 0
[TOTAL_GC_TIME_G1_Old_Generation], Time(ms), 0
[TOTAL_GC_TIME_%_G1_Old_Generation], Time(%), 0.0
[TOTAL_GCs], Count, 817
[TOTAL_GC_TIME], Time(ms), 2575
[TOTAL_GC_TIME_%], Time(%), 0.8752519535963508
[CLEANUP], Operations, 6
[CLEANUP], AverageLatency(us), 368472.0
[CLEANUP], MinLatency(us), 2
[CLEANUP], MaxLatency(us), 2211839
[CLEANUP], 95thPercentileLatency(us), 2211839
[CLEANUP], 99thPercentileLatency(us), 2211839
[INSERT], Operations, 2500000
[INSERT], AverageLatency(us), 689.2025772
[INSERT], MinLatency(us), 185
[INSERT], MaxLatency(us), 3307519
[INSERT], 95thPercentileLatency(us), 844
[INSERT], 99thPercentileLatency(us), 2651
[INSERT], Return=OK, 2500000
