[OVERALL], RunTime(ms), 160317
[OVERALL], Throughput(ops/sec), 7797.052090545607
[TOTAL_GCS_G1_Young_Generation], Count, 605
[TOTAL_GC_TIME_G1_Young_Generation], Time(ms), 705
[TOTAL_GC_TIME_%_G1_Young_Generation], Time(%), 0.43975373790677225
[TOTAL_GCS_G1_Old_Generation], Count, 0
[TOTAL_GC_TIME_G1_Old_Generation], Time(ms), 0
[TOTAL_GC_TIME_%_G1_Old_Generation], Time(%), 0.0
[TOTAL_GCs], Count, 605
[TOTAL_GC_TIME], Time(ms), 705
[TOTAL_GC_TIME_%], Time(%), 0.43975373790677225
[CLEANUP], Operations, 6
[CLEANUP], AverageLatency(us), 0.16666666666666666
[CLEANUP], MinLatency(us), 0
[CLEANUP], MaxLatency(us), 1
[CLEANUP], 95thPercentileLatency(us), 1
[CLEANUP], 99thPercentileLatency(us), 1
[INSERT], Operations, 1250000
[INSERT], AverageLatency(us), 708.606492
[INSERT], MinLatency(us), 109
[INSERT], MaxLatency(us), 70847
[INSERT], 95thPercentileLatency(us), 2523
[INSERT], 99thPercentileLatency(us), 5451
[INSERT], Return=OK, 1250000
