[OVERALL], RunTime(ms), 1442472
[OVERALL], Throughput(ops/sec), 866.5679472461164
[TOTAL_GCS_G1_Young_Generation], Count, 5733
[TOTAL_GC_TIME_G1_Young_Generation], Time(ms), 21507
[TOTAL_GC_TIME_%_G1_Young_Generation], Time(%), 1.490982147313778
[TOTAL_GCS_G1_Old_Generation], Count, 0
[TOTAL_GC_TIME_G1_Old_Generation], Time(ms), 0
[TOTAL_GC_TIME_%_G1_Old_Generation], Time(%), 0.0
[TOTAL_GCs], Count, 5733
[TOTAL_GC_TIME], Time(ms), 21507
[TOTAL_GC_TIME_%], Time(%), 1.490982147313778
[CLEANUP], Operations, 6
[CLEANUP], AverageLatency(us), 0.3333333333333333
[CLEANUP], MinLatency(us), 0
[CLEANUP], MaxLatency(us), 1
[CLEANUP], 95thPercentileLatency(us), 1
[CLEANUP], 99thPercentileLatency(us), 1
[INSERT], Operations, 62615
[INSERT], AverageLatency(us), 1303.1286113551066
[INSERT], MinLatency(us), 166
[INSERT], MaxLatency(us), 59839
[INSERT], 95thPercentileLatency(us), 3959
[INSERT], 99thPercentileLatency(us), 6091
[INSERT], Return=OK, 62615
[SCAN], Operations, 1187385
[SCAN], AverageLatency(us), 6838.465272005289
[SCAN], MinLatency(us), 722
[SCAN], MaxLatency(us), 277503
[SCAN], 95thPercentileLatency(us), 12663
[SCAN], 99thPercentileLatency(us), 17631
[SCAN], Return=OK, 1187385
