Adding shard node URL: jdbc:postgresql://127.0.0.1:5432/ycsb
Adding shard node URL: jdbc:postgresql://127.0.0.1:5432/ycsb
Adding shard node URL: jdbc:postgresql://127.0.0.1:5432/ycsb
Adding shard node URL: jdbc:postgresql://127.0.0.1:5432/ycsb
Adding shard node URL: jdbc:postgresql://127.0.0.1:5432/ycsb
Adding shard node URL: jdbc:postgresql://127.0.0.1:5432/ycsb
Using shards: 1, batchSize:-1, fetchSize: -1
Using shards: 1, batchSize:-1, fetchSize: -1
Using shards: 1, batchSize:-1, fetchSize: -1
Using shards: 1, batchSize:-1, fetchSize: -1
Using shards: 1, batchSize:-1, fetchSize: -1
Using shards: 1, batchSize:-1, fetchSize: -1
[OVERALL], RunTime(ms), 239834
[OVERALL], Throughput(ops/sec), 20847.753029178515
[TOTAL_GCS_G1_Young_Generation], Count, 802
[TOTAL_GC_TIME_G1_Young_Generation], Time(ms), 549
[TOTAL_GC_TIME_%_G1_Young_Generation], Time(%), 0.2289083282603801
[TOTAL_GCS_G1_Old_Generation], Count, 0
[TOTAL_GC_TIME_G1_Old_Generation], Time(ms), 0
[TOTAL_GC_TIME_%_G1_Old_Generation], Time(%), 0.0
[TOTAL_GCs], Count, 802
[TOTAL_GC_TIME], Time(ms), 549
[TOTAL_GC_TIME_%], Time(%), 0.2289083282603801
[READ], Operations, 4749297
[READ], AverageLatency(us), 161.89385250069643
[READ], MinLatency(us), 52
[READ], MaxLatency(us), 55551
[READ], 95thPercentileLatency(us), 518
[READ], 99thPercentileLatency(us), 703
[READ], Return=OK, 4749297
[CLEANUP], Operations, 6
[CLEANUP], AverageLatency(us), 398.3333333333333
[CLEANUP], MinLatency(us), 147
[CLEANUP], MaxLatency(us), 1128
[CLEANUP], 95thPercentileLatency(us), 1128
[CLEANUP], 99thPercentileLatency(us), 1128
[INSERT], Operations, 250703
[INSERT], AverageLatency(us), 2608.1115543092824
[INSERT], MinLatency(us), 578
[INSERT], MaxLatency(us), 144639
[INSERT], 95thPercentileLatency(us), 4795
[INSERT], 99thPercentileLatency(us), 44895
[INSERT], Return=OK, 250703
