mongo client connection created with mongodb://localhost:27017/ycsb?w=1
[OVERALL], RunTime(ms), 4907259
[OVERALL], Throughput(ops/sec), 254.72468439102155
[TOTAL_GCS_PS_Scavenge], Count, 19438
[TOTAL_GC_TIME_PS_Scavenge], Time(ms), 39989
[TOTAL_GC_TIME_%_PS_Scavenge], Time(%), 0.8148948323290048
[TOTAL_GCS_PS_MarkSweep], Count, 20
[TOTAL_GC_TIME_PS_MarkSweep], Time(ms), 531
[TOTAL_GC_TIME_%_PS_MarkSweep], Time(%), 0.010820704592930594
[TOTAL_GCs], Count, 19458
[TOTAL_GC_TIME], Time(ms), 40520
[TOTAL_GC_TIME_%], Time(%), 0.8257155369219356
[CLEANUP], Operations, 6
[CLEANUP], AverageLatency(us), 2191.8333333333335
[CLEANUP], MinLatency(us), 1
[CLEANUP], MaxLatency(us), 13143
[CLEANUP], 95thPercentileLatency(us), 13143
[CLEANUP], 99thPercentileLatency(us), 13143
[INSERT], Operations, 62224
[INSERT], AverageLatency(us), 837.6793520185138
[INSERT], MinLatency(us), 124
[INSERT], MaxLatency(us), 104319
[INSERT], 95thPercentileLatency(us), 1490
[INSERT], 99thPercentileLatency(us), 2105
[INSERT], Return=OK, 62224
[SCAN], Operations, 1187776
[SCAN], AverageLatency(us), 24717.195882051834
[SCAN], MinLatency(us), 135
[SCAN], MaxLatency(us), 464127
[SCAN], 95thPercentileLatency(us), 58047
[SCAN], 99thPercentileLatency(us), 72127
[SCAN], Return=OK, 1187776
