mongo client connection created with mongodb://localhost:27017/ycsb?w=1
[OVERALL], RunTime(ms), 36432698
[OVERALL], Throughput(ops/sec), 274.4787114036957
[TOTAL_GCS_G1_Young_Generation], Count, 95911
[TOTAL_GC_TIME_G1_Young_Generation], Time(ms), 197723
[TOTAL_GC_TIME_%_G1_Young_Generation], Time(%), 0.5427075425487292
[TOTAL_GCS_G1_Old_Generation], Count, 0
[TOTAL_GC_TIME_G1_Old_Generation], Time(ms), 0
[TOTAL_GC_TIME_%_G1_Old_Generation], Time(%), 0.0
[TOTAL_GCs], Count, 95911
[TOTAL_GC_TIME], Time(ms), 197723
[TOTAL_GC_TIME_%], Time(%), 0.5427075425487292
[CLEANUP], Operations, 6
[CLEANUP], AverageLatency(us), 13331.166666666666
[CLEANUP], MinLatency(us), 0
[CLEANUP], MaxLatency(us), 78335
[CLEANUP], 95thPercentileLatency(us), 78335
[CLEANUP], 99thPercentileLatency(us), 78335
[INSERT], Operations, 499802
[INSERT], AverageLatency(us), 838.9655923745803
[INSERT], MinLatency(us), 119
[INSERT], MaxLatency(us), 147711
[INSERT], 95thPercentileLatency(us), 1512
[INSERT], 99thPercentileLatency(us), 2095
[INSERT], Return=OK, 499802
[SCAN], Operations, 9500198
[SCAN], AverageLatency(us), 22935.90528702665
[SCAN], MinLatency(us), 123
[SCAN], MaxLatency(us), 1261567
[SCAN], 95thPercentileLatency(us), 54399
[SCAN], 99thPercentileLatency(us), 66303
[SCAN], Return=OK, 9500198
