mongo client connection created with mongodb://localhost:27017/ycsb?w=1
[OVERALL], RunTime(ms), 164446
[OVERALL], Throughput(ops/sec), 30405.117789426316
[TOTAL_GCS_G1_Young_Generation], Count, 1236
[TOTAL_GC_TIME_G1_Young_Generation], Time(ms), 680
[TOTAL_GC_TIME_%_G1_Young_Generation], Time(%), 0.41350960193619785
[TOTAL_GCS_G1_Old_Generation], Count, 0
[TOTAL_GC_TIME_G1_Old_Generation], Time(ms), 0
[TOTAL_GC_TIME_%_G1_Old_Generation], Time(%), 0.0
[TOTAL_GCs], Count, 1236
[TOTAL_GC_TIME], Time(ms), 680
[TOTAL_GC_TIME_%], Time(%), 0.41350960193619785
[READ], Operations, 5000000
[READ], AverageLatency(us), 195.2687752
[READ], MinLatency(us), 80
[READ], MaxLatency(us), 38527
[READ], 95thPercentileLatency(us), 596
[READ], 99thPercentileLatency(us), 849
[READ], Return=OK, 5000000
[CLEANUP], Operations, 6
[CLEANUP], AverageLatency(us), 4944.166666666667
[CLEANUP], MinLatency(us), 0
[CLEANUP], MaxLatency(us), 29407
[CLEANUP], 95thPercentileLatency(us), 29407
[CLEANUP], 99thPercentileLatency(us), 29407
